Sandbox/Microphone/MicrophoneA7/MicrophoneA7.sim/sim_1/behav/xsim/tb_mic_recorder.vcd
$date
   Sat Jul 18 16:07:46 2026
$end

$version
  2025.1.0
  $dumpfile ("tb_mic_recorder.vcd") 
$end

$timescale
  1ps
$end

$scope module tb_mic_recorder $end
$var reg 1 ! CLK100MHZ $end
$var reg 1 " CPU_RESETN $end
$var reg 1 # SW_0 $end
$var reg 1 $ SW_1 $end
$var wire 1 % M_CLK $end
$var wire 1 & M_LRSEL $end
$var wire 1 ' M_DATA $end
$var wire 1 ( AUD_PWM $end
$var wire 1 ) AUD_SD $end
$var wire 16 * LED [15:0] $end
$var real 32 + sine_phase $end
$var real 32 , sine_val $end
$var integer 32 - sd_integrator [31:0] $end
$var reg 1 . pdm_bit $end
$scope module u_dut $end
$var wire 1 / CLK100MHZ $end
$var wire 1 0 CPU_RESETN $end
$var wire 1 1 SW_0 $end
$var wire 1 2 SW_1 $end
$var wire 1 ' M_DATA $end
$var wire 1 % M_CLK $end
$var wire 1 & M_LRSEL $end
$var reg 1 3 AUD_PWM $end
$var wire 1 ) AUD_SD $end
$var reg 16 4 LED [15:0] $end
$var wire 1 5 rst $end
$var wire 8 6 pcm_sample [7:0] $end
$var wire 1 7 sample_valid $end
$var reg 2 8 state [1:0] $end
$var reg 2 9 next_state [1:0] $end
$var wire 1 : buf_we $end
$var wire 13 ; buf_addr [12:0] $end
$var wire 8 < buf_din [7:0] $end
$var wire 8 = buf_dout [7:0] $end
$var reg 14 > record_count [13:0] $end
$var reg 14 ? play_count [13:0] $end
$var wire 1 @ buf_full $end
$var wire 1 A buf_empty $end
$var reg 13 B sample_timer [12:0] $end
$var wire 1 C sample_tick $end
$var wire 9 D signed_sample [8:0] $end
$var wire 8 E amplitude [7:0] $end
$var wire 16 F vu_leds [15:0] $end
$var wire 8 G display_sample [7:0] $end
$var reg 8 H pwm_cnt [7:0] $end
$var wire 8 I pwm_sample [7:0] $end
$var wire 8 J pwm_duty [7:0] $end
$scope module u_pdm_decoder $end
$var wire 1 / clk $end
$var wire 1 5 rst $end
$var wire 1 ' m_data $end
$var reg 1 K m_clk $end
$var wire 1 & m_lrsel $end
$var reg 8 L pcm_sample [7:0] $end
$var reg 1 M sample_valid $end
$var reg 6 N mclk_cnt [5:0] $end
$var reg 1 O m_clk_d $end
$var wire 1 P m_clk_rise $end
$var reg 7 Q bit_cnt [6:0] $end
$var reg 8 R ones_cnt [7:0] $end
$upscope $end
$scope module u_audio_buffer $end
$var wire 1 / clk $end
$var wire 1 : we $end
$var wire 13 ; addr [12:0] $end
$var wire 8 < din [7:0] $end
$var reg 8 S dout [7:0] $end
$upscope $end
$upscope $end
$upscope $end
$enddefinitions $end

#0
$dumpvars
0!
0"
0#
0$
0%
0&
0'
0(
0)
b0 *
r0 +
r0 ,
b0 -
0.
0/
00
01
02
03
b0 4
15
b1000000 6
07
b0 8
b0 9
0:
b0 ;
b1000000 <
bx =
b0 >
b0 ?
0@
1A
b0 B
0C
b0 D
b0 E
b0 F
b1000000 G
b0 H
b1000000 I
b10000000 J
0K
b1000000 L
0M
b0 N
xO
0P
b0 Q
b0 R
bx S
$end

#5000
1!
1/
0O

#10000
0!
0/

#15000
1!
1"
1/
10
05

#20000
0!
0/

#25000
1!
1(
1/
13
b1 H
b1 N

#30000
0!
0/

#35000
1!
1/
b10 H
b10 N

#40000
0!
0/

#45000
1!
1/
b11 H
b11 N

#50000
0!
0/

#55000
1!
1/
b100 H
b100 N

#60000
0!
0/

#65000
1!
1#
1/
11
b1 9
b101 H
b101 N

#70000
0!
0/

#75000
1!
1/
b1 8
b110 H
b110 N

#80000
0!
0/

#85000
1!
1/
b111 H
b111 N

#90000
0!
0/

#95000
1!
1/
b1000 H
b1000 N

#100000
0!
0/

#105000
1!
1/
b1001 H
b1001 N

#110000
0!
0/

#115000
1!
1/
b1010 H
b1010 N

#120000
0!
0/

#125000
1!
1/
b1011 H
b1011 N

#130000
0!
0/

#135000
1!
1/
b1100 H
b1100 N

#140000
0!
0/

#145000
1!
1/
b1101 H
b1101 N

#150000
0!
0/

#155000
1!
1/
b1110 H
b1110 N

#160000
0!
0/

#165000
1!
1/
b1111 H
b1111 N

#170000
0!
0/

#175000
1!
1/
b10000 H
b10000 N

#180000
0!
0/

#185000
1!
1/
b10001 H
b10001 N

#190000
0!
0/

#195000
1!
1/
b10010 H
b10010 N

#200000
0!
0/

#205000
1!
1/
b10011 H
b10011 N

#210000
0!
0/

#215000
1!
1%
1'
r0.0012566370614 +
r64.04021237538133 ,
b1000000 -
1.
1/
b10100 H
1K
b0 N
1P

#220000
0!
0/

#225000
1!
1/
b10101 H
b1 N
1O
0P
b1 Q
b1 R

#230000
0!
0/

#235000
1!
1/
b10110 H
b10 N

#240000
0!
0/

#245000
1!
1/
b10111 H
b11 N

#250000
0!
0/

#255000
1!
1/
b11000 H
b100 N

#260000
0!
0/

#265000
1!
1/
b11001 H
b101 N

#270000
0!
0/

#275000
1!
1/
b11010 H
b110 N

#280000
0!
0/

#285000
1!
1/
b11011 H
b111 N

#290000
0!
0/

#295000
1!
1/
b11100 H
b1000 N

#300000
0!
0/

#305000
1!
1/
b11101 H
b1001 N

#310000
0!
0/

#315000
1!
1/
b11110 H
b1010 N

#320000
0!
0/

#325000
1!
1/
b11111 H
b1011 N

#330000
0!
0/

#335000
1!
1/
b100000 H
b1100 N

#340000
0!
0/

#345000
1!
1/
b100001 H
b1101 N

#350000
0!
0/

#355000
1!
1/
b100010 H
b1110 N

#360000
0!
0/

#365000
1!
1/
b100011 H
b1111 N

#370000
0!
0/

#375000
1!
1/
b100100 H
b10000 N

#380000
0!
0/

#385000
1!
1/
b100101 H
b10001 N

#390000
0!
0/

#395000
1!
1/
b100110 H
b10010 N

#400000
0!
0/

#405000
1!
1/
b100111 H
b10011 N

#410000
0!
0/

#415000
1!
0%
1/
b101000 H
0K
b0 N

#420000
0!
0/

#425000
1!
1/
b101001 H
b1 N
0O

#430000
0!
0/

#435000
1!
1/
b101010 H
b10 N

#440000
0!
0/

#445000
1!
1/
b101011 H
b11 N

#450000
0!
0/

#455000
1!
1/
b101100 H
b100 N

#460000
0!
0/

#465000
1!
0#
1/
01
b0 9
b101101 H
b101 N

#470000
0!
0/

#475000
1!
1/
b0 8
b101110 H
b110 N

#480000
0!
0/

#485000
1!
1/
b101111 H
b111 N

#490000
0!
0/

#495000
1!
1/
b110000 H
b1000 N

#500000
0!
0/

#505000
1!
1/
b110001 H
b1001 N

#510000
0!
0/

#515000
1!
1$
1/
12
b110010 H
b1010 N

#520000
0!
0/

#525000
1!
1/
b110011 H
b1011 N

#530000
0!
0/

#535000
1!
1/
b110100 H
b1100 N

#540000
0!
0/

#545000
1!
1/
b110101 H
b1101 N

#550000
0!
0/

#555000
1!
1/
b110110 H
b1110 N

#560000
0!
0/

#565000
1!
1/
b110111 H
b1111 N

#570000
0!
0/

#575000
1!
1/
b111000 H
b10000 N

#580000
0!
0/

#585000
1!
1/
b111001 H
b10001 N

#590000
0!
0/

#595000
1!
1/
b111010 H
b10010 N

#600000
0!
0/

#605000
1!
1/
b111011 H
b10011 N

#610000
0!
0/

#615000
1!
1%
0'
r0.0025132741228 +
r64.08042468726183 ,
b0 -
0.
1/
b111100 H
1K
b0 N
1P

#620000
0!
0/

#625000
1!
1/
b111101 H
b1 N
1O
0P
b10 Q

#630000
0!
0/

#635000
1!
1/
b111110 H
b10 N

#640000
0!
0/

#645000
1!
1/
b111111 H
b11 N

#650000
0!
0/

#655000
1!
1/
b1000000 H
b100 N

#660000
0!
0/

#665000
1!
1/
b1000001 H
b101 N

#670000
0!
0/

#675000
1!
1/
b1000010 H
b110 N

#680000
0!
0/

#685000
1!
1/
b1000011 H
b111 N

#690000
0!
0/

#695000
1!
1/
b1000100 H
b1000 N

#700000
0!
0/

#705000
1!
1/
b1000101 H
b1001 N

#710000
0!
0/

#715000
1!
1/
b1000110 H
b1010 N

#720000
0!
0/

#725000
1!
1/
b1000111 H
b1011 N

#730000
0!
0/

#735000
1!
1/
b1001000 H
b1100 N

#740000
0!
0/

#745000
1!
1/
b1001001 H
b1101 N

#750000
0!
0/

#755000
1!
1/
b1001010 H
b1110 N

#760000
0!
0/

#765000
1!
1/
b1001011 H
b1111 N

#770000
0!
0/

#775000
1!
1/
b1001100 H
b10000 N

#780000
0!
0/

#785000
1!
1/
b1001101 H
b10001 N

#790000
0!
0/

#795000
1!
1/
b1001110 H
b10010 N

#800000
0!
0/

#805000
1!
1/
b1001111 H
b10011 N

#810000
0!
0/

#815000
1!
0%
1/
b1010000 H
0K
b0 N

#820000
0!
0/

#825000
1!
1/
b1010001 H
b1 N
0O

#830000
0!
0/

#835000
1!
1/
b1010010 H
b10 N

#840000
0!
0/

#845000
1!
1/
b1010011 H
b11 N

#850000
0!
0/

#855000
1!
1/
b1010100 H
b100 N

#860000
0!
0/

#865000
1!
1/
b1010101 H
b101 N

#870000
0!
0/

#875000
1!
1/
b1010110 H
b110 N

#880000
0!
0/

#885000
1!
1/
b1010111 H
b111 N

#890000
0!
0/

#895000
1!
1/
b1011000 H
b1000 N

#900000
0!
0/

#905000
1!
1/
b1011001 H
b1001 N

#910000
0!
0/

#915000
1!
1/
b1011010 H
b1010 N

#920000
0!
0/

#925000
1!
1/
b1011011 H
b1011 N

#930000
0!
0/

#935000
1!
1/
b1011100 H
b1100 N

#940000
0!
0/

#945000
1!
1/
b1011101 H
b1101 N

#950000
0!
0/

#955000
1!
1/
b1011110 H
b1110 N

#960000
0!
0/

#965000
1!
1/
b1011111 H
b1111 N

#970000
0!
0/

#975000
1!
1/
b1100000 H
b10000 N

#980000
0!
0/

#985000
1!
1/
b1100001 H
b10001 N

#990000
0!
0/

#995000
1!
1/
b1100010 H
b10010 N

#1000000
0!
0/

#1005000
1!
1/
b1100011 H
b10011 N

#1010000
0!
0/

#1015000
1!
0$
1%
1'
r0.0037699111842 +
r64.12063687214076 ,
b1000000 -
1.
1/
02
b1100100 H
1K
b0 N
1P

#1020000
0!
0/

#1025000
1!
1/
b1100101 H
b1 N
1O
0P
b11 Q
b10 R

#1030000
0!
0/

#1035000
1!
1/
b1100110 H
b10 N

#1040000
0!
0/

#1045000
1!
1/
b1100111 H
b11 N

#1050000
0!
0/

#1055000
1!
1/
b1101000 H
b100 N

#1060000
0!
0/

#1065000
1!
1#
1/
11
b1 9
b1101001 H
b101 N

#1070000
0!
0/

#1075000
1!
1/
b1 8
b1101010 H
b110 N

#1080000
0!
0/

#1085000
1!
1/
b1101011 H
b111 N

#1090000
0!
0/

#1095000
1!
1/
b1101100 H
b1000 N

#1100000
0!
0/

#1105000
1!
1/
b1101101 H
b1001 N

#1110000
0!
0/

#1115000
1!
1/
b1101110 H
b1010 N

#1120000
0!
0/

#1125000
1!
1/
b1101111 H
b1011 N

#1130000
0!
0/

#1135000
1!
1/
b1110000 H
b1100 N

#1140000
0!
0/

#1145000
1!
1/
b1110001 H
b1101 N

#1150000
0!
0/

#1155000
1!
1/
b1110010 H
b1110 N

#1160000
0!
0/

#1165000
1!
1/
b1110011 H
b1111 N

#1170000
0!
0/

#1175000
1!
1/
b1110100 H
b10000 N

#1180000
0!
0/

#1185000
1!
1/
b1110101 H
b10001 N

#1190000
0!
0/

#1195000
1!
1/
b1110110 H
b10010 N

#1200000
0!
0/

#1205000
1!
1/
b1110111 H
b10011 N

#1210000
0!
0/

#1215000
1!
0%
1/
b1111000 H
0K
b0 N

#1220000
0!
0/

#1225000
1!
1/
b1111001 H
b1 N
0O

#1230000
0!
0/

#1235000
1!
1/
b1111010 H
b10 N

#1240000
0!
0/

#1245000
1!
1/
b1111011 H
b11 N

#1250000
0!
0/

#1255000
1!
1/
b1111100 H
b100 N

#1260000
0!
0/

#1265000
1!
1/
b1111101 H
b101 N

#1270000
0!
0/

#1275000
1!
1/
b1111110 H
b110 N

#1280000
0!
0/

#1285000
1!
1/
b1111111 H
b111 N

#1290000
0!
0/

#1295000
1!
1/
b10000000 H
b1000 N

#1300000
0!
0/

#1305000
1!
0(
1/
03
b10000001 H
b1001 N

#1310000
0!
0/

#1315000
1!
1/
b10000010 H
b1010 N

#1320000
0!
0/

#1325000
1!
1/
b10000011 H
b1011 N

#1330000
0!
0/

#1335000
1!
1/
b10000100 H
b1100 N

#1340000
0!
0/

#1345000
1!
1/
b10000101 H
b1101 N

#1350000
0!
0/

#1355000
1!
1/
b10000110 H
b1110 N

#1360000
0!
0/

#1365000
1!
0#
1$
1/
01
12
b0 9
b10000111 H
b1111 N

#1370000
0!
0/

#1375000
1!
1/
b0 8
b10001000 H
b10000 N

#1380000
0!
0/

#1385000
1!
1/
b10001001 H
b10001 N

#1390000
0!
0/

#1395000
1!
1/
b10001010 H
b10010 N

#1400000
0!
0/

#1405000
1!
1/
b10001011 H
b10011 N

#1410000
0!
0/

#1415000
1!
1%
0'
r0.0050265482456 +
r64.16084886651761 ,
b0 -
0.
1/
b10001100 H
1K
b0 N
1P

#1420000
0!
0/

#1425000
1!
1/
b10001101 H
b1 N
1O
0P
b100 Q

#1430000
0!
0/

#1435000
1!
1/
b10001110 H
b10 N

#1440000
0!
0/

#1445000
1!
1/
b10001111 H
b11 N

#1450000
0!
0/

#1455000
1!
1/
b10010000 H
b100 N

#1460000
0!
0/

#1465000
1!
1/
b10010001 H
b101 N

#1470000
0!
0/

#1475000
1!
1/
b10010010 H
b110 N

#1480000
0!
0/

#1485000
1!
1/
b10010011 H
b111 N

#1490000
0!
0/

#1495000
1!
1/
b10010100 H
b1000 N

#1500000
0!
0/

#1505000
1!
1/
b10010101 H
b1001 N

#1510000
0!
0/

#1515000
1!
1/
b10010110 H
b1010 N

#1520000
0!
0/

#1525000
1!
1/
b10010111 H
b1011 N

#1530000
0!
0/

#1535000
1!
1/
b10011000 H
b1100 N

#1540000
0!
0/

#1545000
1!
1/
b10011001 H
b1101 N

#1550000
0!
0/

#1555000
1!
1/
b10011010 H
b1110 N

#1560000
0!
0/

#1565000
1!
1/
b10011011 H
b1111 N

#1570000
0!
0/

#1575000
1!
1/
b10011100 H
b10000 N

#1580000
0!
0/

#1585000
1!
1/
b10011101 H
b10001 N

#1590000
0!
0/

#1595000
1!
1/
b10011110 H
b10010 N

#1600000
0!
0/

#1605000
1!
1/
b10011111 H
b10011 N

#1610000
0!
0/

#1615000
1!
0%
1/
b10100000 H
0K
b0 N

#1620000
0!
0/

#1625000
1!
1/
b10100001 H
b1 N
0O

#1630000
0!
0/

#1635000
1!
1/
b10100010 H
b10 N

#1640000
0!
0/

#1645000
1!
1/
b10100011 H
b11 N

#1650000
0!
0/

#1655000
1!
1/
b10100100 H
b100 N

#1660000
0!
0/

#1665000
1!
1/
b10100101 H
b101 N

#1670000
0!
0/

#1675000
1!
1/
b10100110 H
b110 N

#1680000
0!
0/

#1685000
1!
1/
b10100111 H
b111 N

#1690000
0!
0/

#1695000
1!
1/
b10101000 H
b1000 N

#1700000
0!
0/

#1705000
1!
1/
b10101001 H
b1001 N

#1710000
0!
0/

#1715000
1!
1/
b10101010 H
b1010 N

#1720000
0!
0/

#1725000
1!
1/
b10101011 H
b1011 N

#1730000
0!
0/

#1735000
1!
1/
b10101100 H
b1100 N

#1740000
0!
0/

#1745000
1!
1/
b10101101 H
b1101 N

#1750000
0!
0/

#1755000
1!
1/
b10101110 H
b1110 N

#1760000
0!
0/

#1765000
1!
1/
b10101111 H
b1111 N

#1770000
0!
0/

#1775000
1!
1/
b10110000 H
b10000 N

#1780000
0!
0/

#1785000
1!
1/
b10110001 H
b10001 N

#1790000
0!
0/

#1795000
1!
1/
b10110010 H
b10010 N

#1800000
0!
0/

#1805000
1!
1/
b10110011 H
b10011 N

#1810000
0!
0/

#1815000
1!
1%
1'
r0.006283185307 +
r64.20106060689214 ,
b1000000 -
1.
1/
b10110100 H
1K
b0 N
1P

#1820000
0!
0/

#1825000
1!
1/
b10110101 H
b1 N
1O
0P
b101 Q
b11 R

#1830000
0!
0/

#1835000
1!
1/
b10110110 H
b10 N

#1840000
0!
0/

#1845000
1!
1/
b10110111 H
b11 N

#1850000
0!
0/

#1855000
1!
1/
b10111000 H
b100 N

#1860000
0!
0/

#1865000
1!
1/
b10111001 H
b101 N

#1870000
0!
0/

#1875000
1!
1/
b10111010 H
b110 N

#1880000
0!
0/

#1885000
1!
1/
b10111011 H
b111 N

#1890000
0!
0/

#1895000
1!
1/
b10111100 H
b1000 N

#1900000
0!
0/

#1905000
1!
1/
b10111101 H
b1001 N

#1910000
0!
0/

#1915000
1!
1/
b10111110 H
b1010 N

#1920000
0!
0/

#1925000
1!
1/
b10111111 H
b1011 N

#1930000
0!
0/

#1935000
1!
1/
b11000000 H
b1100 N

#1940000
0!
0/

#1945000
1!
1/
b11000001 H
b1101 N

#1950000
0!
0/

#1955000
1!
1/
b11000010 H
b1110 N

#1960000
0!
0/

#1965000
1!
0$
1/
02
b11000011 H
b1111 N

#1970000
0!
0/

#1975000
1!
1/
b11000100 H
b10000 N

#1980000
0!
0/

#1985000
1!
1/
b11000101 H
b10001 N

#1990000
0!
0/

#1995000
1!
1/
b11000110 H
b10010 N

#2000000
0!
0/

#2005000
1!
1/
b11000111 H
b10011 N

